[api-updater (non-obsolete-error-filter)] 4/12/2022 8:15:14 PM : Starting D:/Unity Editors/2020.3.8f1/Editor/Data/Tools/ScriptUpdater/APIUpdater.NonObsoleteApiUpdaterDetector.exe
[api-updater (non-obsolete-error-filter)] 
----------------------------------
jit/startup time      : 920.0485ms
moved types parse time: 75ms
candidates parse time : 15ms
C# parse time         : 515ms
candidates check time : 63ms
console write time    : 0ms

